…
Finally, because the function `get_vector_column` is vectorized, we can
get a dataframe of multiple columns.

``` r
# get several vectors at once
df_vars <- tibble::as_tibble(get_vector_column(parser, c("FPR", "FGOR", "FOPR")))
df_vars
#> # A tibble: 69 x 3
#>      FPR  FGOR  FOPR
#>    <dbl> <dbl> <dbl>
#>  1 6025.  0       0 
#>  2 6022.  1.53  496.
#>  3 6011.  1.53  496.
#>  4 5978.  1.53  498.
#>  5 5878.  1.53  500 
#>  6 5744.  1.53  500 
#>  7 5609   1.53  500 
#>  8 5528.  1.54  500 
#>  9 5492.  1.56  500 
#> 10 5459.  1.58  500 
#> # ... with 59 more rows
```
…
``` r
# get a dataframe of multiple columns
# vectorized function to get several vectors at once
df_vars <- get_vector_column(parser, c("YEARS", "FGOR", "FOPR", "FWCT"))
tibble::as_tibble(df_vars)
#> # A tibble: 179 x 4
#>        YEARS  FGOR  FOPR        FWCT
#>        <dbl> <dbl> <dbl>       <dbl>
#>  1 0           0       0 0          
#>  2 0.0000274   0       0 0          
#>  3 0.000301   74     600 0.000000199
#>  4 0.00112    74     600 0.000000609
#>  5 0.00277    74.0   600 0.00000113 
#>  6 0.00769    73.9   600 0.00000189 
#>  7 0.0225     73.6   600 0.00000290 
#>  8 0.0537     73.2   600 0.00000394 
#>  9 0.0849     73.0   600 0.00000460 
#> 10 0.162      72.7   600 0.00000563 
#> # ... with 169 more rows
```

Eclipse vectors that are different in nature, such as well (start with
**W**) variables, will get a different size than field variables (start
with **F**):

``` r
# read a well variable
tibble::as_tibble(get_vector_column(parser, "WBHP"))
#> # A tibble: 1,074 x 1
#>     WBHP
#>    <dbl>
#>  1    0 
#>  2    0 
#>  3  221.
#>  4  221.
#>  5  220.
#>  6  219.
#>  7  218.
#>  8  217.
#>  9  216.
#> 10  215.
#> # ... with 1,064 more rows
```
…
``` r
# dataframe corresponding to a specific vector-column
# tibble::as_tibble(get_vector_column(parser, "FOPR"))
```

``` r
# get a dataframe of multiple columns
# vectorized function to get several vectors at once
df_vars <- get_vector_column(parser, c("YEARS", "FGOR", "FOPR", "FWCT"))
tibble::as_tibble(df_vars)
#> # A tibble: 1,611 x 4
#>      YEARS  FGOR  FOPR  FWCT
#>      <dbl> <dbl> <dbl> <dbl>
#>  1 0           0     0     0
#>  2 0.00274     0     0     0
#>  3 0.00447     0     0     0
#>  4 0.00636     0     0     0
#>  5 0.00958     0     0     0
#>  6 0.0149      0     0     0
#>  7 0.0225      0     0     0
#>  8 0.0301      0     0     0
#>  9 0.0400      0     0     0
#> 10 0.0487      0     0     0
#> # ... with 1,601 more rows
```

Eclipse vectors that are different in nature, such as well (start with
**W**) variables, will get a different size than field variables (start
with **F**):

``` r
# read a well variable
tibble::as_tibble(get_vector_column(parser, "WBHP"))
#> # A tibble: 45,108 x 1
#>     WBHP
#>    <dbl>
#>  1     0
#>  2     0
#>  3     0
#>  4     0
#>  5     0
#>  6     0
#>  7     0
#>  8     0
#>  9     0
#> 10     0
#> # ... with 45,098 more rows
```
